{
  "data": [
    {
      "key": "question0",
      "question": "Công ty thành lập vào năm nào?",
      "answers": [
        {
          "key": "answer0",
          "text": "8/2010",
          "isCorrect": false
        },
        {
          "key": "answer1",
          "text": "8/2011",
          "isCorrect": true
        },
        {
          "key": "answer2",
          "text": "4/2012",
          "isCorrect": false
        },
        {
          "key": "answer3",
          "text": "5/2013",
          "isCorrect": false
        }
      ]
    },
    {
      "key": "question1",
      "question": "Tên đầy đủ của công ty là gì?",
      "answers": [
        {
          "key": "answer0",
          "text": "CÔNG TY TNHH MTV PHÁT TRIỂN CÔNG NGHỆ THÔNG TIN ENOUVO",
          "isCorrect": true
        },
        {
          "key": "answer1",
          "text": "CÔNG TY TNHH MTV PHÁT TRIỂN CÔNG NGHỆ THÔNG TIN ENOUVO SPACE",
          "isCorrect": false
        },
        {
          "key": "answer2",
          "text": "CÔNG TY TNHH MTV PHÁT TRIỂN CÔNG NGHỆ THÔNG TIN ENOUVO DIGITAL",
          "isCorrect": false
        },
        {
          "key": "answer3",
          "text": "CÔNG TY TNHH  ENOUVO",
          "isCorrect": false
        }
      ]
    },
    {
      "key": "question2",
      "question": "Trụ sở đầu tiên của công ty là ở đâu?",
      "answers": [
        {
          "key": "answer0",
          "text": "K36/16 Lê Duẩn",
          "isCorrect": false
        },
        {
          "key": "answer1",
          "text": "84 Cao Xuân Dục",
          "isCorrect": true
        },
        {
          "key": "answer2",
          "text": "15 Tạ Mỹ Duật",
          "isCorrect": false
        }
      ]
    }
  ]
}